{
  "telemetry.enableTelemetry": false,

  "files.insertFinalNewline": true,
  "files.trimTrailingWhitespace": true,

  "explorer.openEditors.visible": 0,

  "editor.fontFamily": "'Monoid', 'Source Code Pro', Menlo, Monaco, 'Courier New', monospace",
  "editor.fontSize": 11,
  "editor.fontLigatures": true,
  "editor.tabSize": 2,
  "editor.scrollBeyondLastLine": true,
  "editor.renderIndentGuides": true,
  "editor.wordWrap": "off",
  "editor.roundedSelection": false,
  "editor.formatOnPaste": false,
  "editor.minimap.enabled": false,
  "editor.colorDecorators": false,
  "editor.detectIndentation": false,
  "editor.rulers": [100],
  "editor.quickSuggestions": {
    "other": true,
    "comments": true,
    "strings": true
  },

  "terminal.integrated.fontSize": 12,
  "terminal.integrated.fontFamily": "'Source Code Pro', Menlo, Monaco, 'Courier New', monospace",
  "terminal.integrated.cursorStyle": "line",
  "terminal.integrated.cursorBlinking": true,
  "terminal.integrated.shell.osx": "/bin/zsh",

  "workbench.activityBar.visible": false,
  "workbench.editor.showTabs": true,
  "workbench.editor.enablePreview": false,
  "workbench.editor.enablePreviewFromQuickOpen": false,
  "workbench.iconTheme": "file-icons",
  "workbench.statusBar.feedback.visible": false,

  "explorer.confirmDragAndDrop": false,

  "search.exclude": {
    "**/node_modules": true,
    "**/bower_components": true,
    "**/dist": true
  },

  "files.associations": {
    "*.edge": "razor"
  },

  "typescript.autoImportSuggestions.enabled": false,
  "vscodeWorkspaceSwitcher.paths": ["/Users/ruslan/Workspaces"],

  "macros": {
    "commentDown": ["editor.action.commentLine", "cursorDown"],
    "foldLevel1": [
      "editor.unfoldAll",
      "editor.foldLevel1",
      "editor.foldLevel2",
      "editor.foldLevel3",
      "editor.foldLevel4",
      "editor.foldLevel5",
      "editor.foldLevel6",
      "editor.foldLevel7",
      "editor.foldLevel8",
      "editor.foldLevel9"
    ],

    "foldLevel2": [
      "editor.unfoldAll",
      "editor.foldLevel2",
      "editor.foldLevel3",
      "editor.foldLevel4",
      "editor.foldLevel5",
      "editor.foldLevel6",
      "editor.foldLevel7",
      "editor.foldLevel8",
      "editor.foldLevel9"
    ],

    "foldLevel3": [
      "editor.unfoldAll",
      "editor.foldLevel3",
      "editor.foldLevel4",
      "editor.foldLevel5",
      "editor.foldLevel6",
      "editor.foldLevel7",
      "editor.foldLevel8",
      "editor.foldLevel9"
    ],

    "foldLevel4": [
      "editor.unfoldAll",
      "editor.foldLevel4",
      "editor.foldLevel5",
      "editor.foldLevel6",
      "editor.foldLevel7",
      "editor.foldLevel8",
      "editor.foldLevel9"
    ],

    "foldLevel5": [
      "editor.unfoldAll",
      "editor.foldLevel5",
      "editor.foldLevel6",
      "editor.foldLevel7",
      "editor.foldLevel8",
      "editor.foldLevel9"
    ],

    "foldLevel6": [
      "editor.unfoldAll",
      "editor.foldLevel6",
      "editor.foldLevel7",
      "editor.foldLevel8",
      "editor.foldLevel9"
    ],

    "foldLevel7": [
      "editor.unfoldAll",
      "editor.foldLevel7",
      "editor.foldLevel8",
      "editor.foldLevel9"
    ],

    "foldLevel8": [
      "editor.unfoldAll",
      "editor.foldLevel8",
      "editor.foldLevel9"
    ],

    "foldLevel9": [
      "editor.unfoldAll",
      "editor.foldLevel9"
    ],

    "showFiles": [
      "workbench.action.toggleSidebarVisibility",
      "workbench.files.action.focusFilesExplorer"
    ]
  },

  "projectManager.openInNewWindow": false,

  "stylelint.enable": true,
  "scss.validate": false,
  "css.validate": false,

  "color-highlight.markerType": "underline",
  "color-highlight.markRuler": false,
  "window.zoomLevel": 0,

  "tslint.autoFixOnSave": true,
  "eslint.autoFixOnSave": true,
  "eslint.packageManager": "yarn",
  "eslint._legacyModuleResolve": true,
  "eslint.options": {
    "rules": {
      "jasmine/no-focused-tests": [0]
    }
  },
  "eslint.validate": [
    "javascript",
    "javascriptreact",
    {
      "language": "vue",
      "autoFix": true
    }
  ],

  "emmet.triggerExpansionOnTab": true,
  "emmet.includeLanguages": {
    "vue": "html",
    "javascript": "html"
  },
  "emmet.syntaxProfiles": {
    "vue-html": "html",
    "vue": "html",
    "javascript": "html"
  },

  "path-intellisense.mappings": {
    "@": "${workspaceRoot}/src"
  },

  "cSpell.language": "en,ru",
  "cSpell.showStatus": false,
  "cSpell.enabledLanguageIds": [
    "c",
    "cpp",
    "csharp",
    "go",
    "html",
    "javascript",
    "javascriptreact",
    "json",
    "latex",
    "markdown",
    "php",
    "plaintext",
    "python",
    "text",
    "typescript",
    "typescriptreact",
    "yml"
  ],

  "cSpell.userWords": [
    "Antimaterial",
    "Docgen",
    "Pomodoro",
    "Qmobi",
    "Selectize",
    "Truthy",
    "UPLOADER",
    "datagrid",
    "datepicker",
    "fancybox",
    "glyphicon",
    "javascipt",
    "multipart",
    "nanoid",
    "preprocessors",
    "sourcemap",
    "unpaused",
    "zeroify",
    "memoridze",
    "workspaces",
    "postgres",
    "instabot",
    "lerna",
    "getstorybook",
    "csrf",
    "deepmerge",
    "sessionid",
    "csrftoken",
    "KHTML",
    "unfollow",
    "comparators",
    "comparator",
    "getstorybook",
    "adaccounts",
    "adaccount",
    "qtable",
  ],

  "workbench.colorTheme": "Antimaterial - Dracula"
}
